APK,TargetSDK,MinSDK,APIs Features
icc_explicit_nosrc_sink.apk,27,23,1,2,4,5,7,8,13,14,15,16,17,18,19,20,21,22,23,24,25,26,27,28,29,30,31,32,33,34,35,36,37,38,39,40,41,42,43,44,46,48,50,52,54,56,58,59,60,61,62,63,64,65,66,67,68,69,70,71,72,73,74,75,76,51,55,57,77,78,79,80,81,82,83,84,85,86,87,88,89,90,91,92,93,94,95,96,97,45,47,98,99,100,101,102,103,104,105,107,109,49,53,113,115
icc_explicit_src_sink.apk,27,23,1,2,3,4,5,6,7,8,13,14,15,16,17,18,19,20,21,22,23,24,25,26,27,28,29,30,31,32,33,34,35,36,37,38,39,40,41,42,43,44,46,48,50,52,54,56,58,59,60,61,62,63,64,65,66,67,68,69,70,71,72,73,74,75,76,51,55,57,77,78,79,80,81,82,83,84,85,86,87,88,89,90,91,92,93,94,95,96,97,45,49,53,102,103,104,105,47,106,108,110,111,98,99,100,101,107,109,113,115
icc_implicit_data2.apk,27,23,1,2,3,4,5,6,7,8,13,14,15,16,17,18,19,20,45,47,49,51,53,55,57,21,22,23,24,25,26,27,28,29,30,31,32,33,34,35,36,37,38,39,40,41,42,43,44,46,48,50,52,54,56,58,59,60,61,62,63,64,65,66,67,68,69,70,71,72,73,74,75,76,77,78,79,80,81,82,83,84,85,86,87,88,89,90,91,92,93,94,95,96,97,102,103,104,105,107,109,106,108,110,111,112,119,100,101,113,115
icc_implicit_mix2.apk,27,23,1,2,3,4,5,6,7,8,10,12,13,14,15,16,17,18,19,20,21,45,47,49,51,53,55,57,22,23,24,25,26,27,28,29,30,31,32,33,34,35,36,37,38,39,40,41,42,43,44,46,48,50,52,54,56,58,59,60,61,62,63,64,65,66,67,68,69,70,71,72,73,74,75,76,106,108,110,111,112,114,116,117,118,100,101,77,78,79,80,81,82,83,84,85,86,87,88,89,90,91,92,93,94,95,96,97,102,103,104,105,107,109,113,115
icc_intentservice.apk,27,23,1,2,3,4,5,6,7,8,9,13,14,15,16,17,18,19,20,21,22,23,24,25,26,27,28,29,30,31,32,33,34,35,36,37,38,39,40,41,42,43,44,46,48,50,52,54,56,58,59,60,61,62,63,64,65,66,67,68,69,70,71,72,73,74,75,76,51,55,57,77,78,79,80,81,82,83,84,85,86,87,88,89,90,91,92,93,94,95,96,97,102,103,104,105,107,109,45,47,106,108,110,111,98,99,100,130,113,115,131,53
rpc_returnsensitive.apk,27,23,1,2,3,4,5,6,7,8,9,13,14,15,16,17,18,19,20,120,121,122,21,123,124,22,23,24,25,26,27,28,29,30,31,32,33,34,35,36,37,38,39,40,41,42,43,44,46,48,50,52,54,56,58,59,60,61,62,63,64,65,66,67,68,69,70,71,72,73,74,75,76,51,55,57,77,78,79,80,81,82,83,84,85,86,87,88,89,90,91,92,93,94,95,96,97,102,103,104,105,107,109,125,126,113,115,45,127,47,110,111,99,128,106,108,129
icc_dynregister2.apk,27,23,1,2,3,4,5,6,7,8,13,14,15,16,17,18,19,20,132,51,53,55,57,21,22,23,24,25,26,27,28,29,30,31,32,33,34,35,36,37,38,39,40,41,42,43,44,46,48,50,52,54,56,58,59,60,61,62,63,64,65,66,67,68,69,70,71,72,73,74,75,76,77,78,79,80,81,82,83,84,85,86,87,88,89,90,91,92,93,94,95,96,97,45,47,106,108,133,134,110,111,135,100,136,102,103,104,105,107,109,113,115
icc_implicit_src_nosink.apk,27,23,1,2,3,4,5,6,7,8,13,14,15,16,17,18,19,20,21,22,23,24,25,26,27,28,29,30,31,32,33,34,35,36,37,38,39,40,41,42,43,44,46,48,50,52,54,56,58,59,60,61,62,63,64,65,66,67,68,69,70,71,72,73,74,75,76,51,55,57,77,78,79,80,81,82,83,84,85,86,87,88,89,90,91,92,93,94,95,96,97,45,47,49,53,137,102,103,104,105,106,108,110,111,135,100,101,107,109,113,115
rpc_messengerservice.apk,27,23,1,2,3,4,5,6,7,8,9,13,125,138,139,140,14,15,16,17,18,19,20,21,22,23,24,25,26,27,28,29,30,31,32,33,34,35,36,37,38,39,40,41,42,43,44,46,48,50,52,54,56,58,59,60,61,62,63,64,65,66,67,68,69,70,71,72,73,74,75,76,51,55,57,77,78,79,80,81,82,83,84,85,86,87,88,89,90,91,92,93,94,95,96,97,102,103,104,105,107,109,45,141,142,47,110,111,143,144,115,99,128,106,108,145,129,146,147,148,149,150,113
icc_implicit_action.apk,27,23,1,2,3,4,5,6,7,8,13,14,15,16,17,18,19,20,21,45,47,49,51,53,55,57,22,23,24,25,26,27,28,29,30,31,32,33,34,35,36,37,38,39,40,41,42,43,44,46,48,50,52,54,56,58,59,60,61,62,63,64,65,66,67,68,69,70,71,72,73,74,75,76,106,108,110,111,135,100,101,77,78,79,80,81,82,83,84,85,86,87,88,89,90,91,92,93,94,95,96,97,102,103,104,105,107,109,113,115
icc_implicit_mix1.apk,27,23,1,2,3,4,5,6,7,8,10,11,13,14,15,16,17,18,19,20,45,47,49,51,53,55,57,21,22,23,24,25,26,27,28,29,30,31,32,33,34,35,36,37,38,39,40,41,42,43,44,46,48,50,52,54,56,58,59,60,61,62,63,64,65,66,67,68,69,70,71,72,73,74,75,76,106,108,110,111,112,114,116,117,118,100,101,77,78,79,80,81,82,83,84,85,86,87,88,89,90,91,92,93,94,95,96,97,102,103,104,105,107,109,113,115
icc_explicit_src_nosink.apk,27,23,1,2,3,4,5,6,7,8,13,14,15,16,17,18,19,20,21,22,23,24,25,26,27,28,29,30,31,32,33,34,35,36,37,38,39,40,41,42,43,44,46,48,50,52,54,56,58,59,60,61,62,63,64,65,66,67,68,69,70,71,72,73,74,75,76,51,55,57,77,78,79,80,81,82,83,84,85,86,87,88,89,90,91,92,93,94,95,96,97,45,47,106,108,110,111,98,99,100,101,102,103,104,105,107,109,49,53,137,113,115
icc_explicit1.apk,27,23,1,2,3,4,5,6,7,8,13,14,15,16,17,18,19,20,21,22,23,24,25,26,27,28,29,30,31,32,33,34,35,36,37,38,39,40,41,42,43,44,46,48,50,52,54,56,58,59,60,61,62,63,64,65,66,67,68,69,70,71,72,73,74,75,76,51,55,57,77,78,79,80,81,82,83,84,85,86,87,88,89,90,91,92,93,94,95,96,97,102,103,104,105,107,109,45,49,53,113,47,106,108,110,111,98,99,100,101,115
rpc_remoteservice.apk,27,23,1,2,3,4,5,6,7,8,9,13,14,15,16,17,18,19,20,121,151,152,153,154,155,156,157,51,55,57,21,22,23,24,25,26,27,28,29,30,31,32,33,34,35,36,37,38,39,40,41,42,43,44,46,48,50,52,54,56,58,59,60,61,62,63,64,65,66,67,68,69,70,71,72,73,74,75,76,77,78,79,80,81,82,83,84,85,86,87,88,89,90,91,92,93,94,95,96,97,102,103,104,105,107,109,158,159,160,125,161,45,162,47,110,111,115,99,128,106,108,129,113,163,164,165,166,167,168
icc_stateful.apk,27,23,1,2,3,4,5,6,7,8,13,45,51,53,55,57,47,106,108,112,98,169,170,14,15,16,17,18,19,20,110,111,49,100,171,172,21,22,23,24,25,26,27,28,29,30,31,32,33,34,35,36,37,38,39,40,41,42,43,44,46,48,50,52,54,56,58,59,60,61,62,63,64,65,66,67,68,69,70,71,72,73,74,75,76,77,78,79,80,81,82,83,84,85,86,87,88,89,90,91,92,93,94,95,96,97,102,103,104,105,107,109,113,115
rpc_localservice.apk,27,23,1,2,3,4,5,6,7,8,9,13,14,15,16,17,18,19,20,173,21,174,175,176,22,23,24,25,26,27,28,29,30,31,32,33,34,35,36,37,38,39,40,41,42,43,44,46,48,50,52,54,56,58,59,60,61,62,63,64,65,66,67,68,69,70,71,72,73,74,75,76,51,55,57,45,177,47,110,111,99,128,106,108,129,77,78,79,80,81,82,83,84,85,86,87,88,89,90,91,92,93,94,95,96,97,102,103,104,105,107,109,125,178,113,121,115
icc_implicit_nosrc_nosink.apk,27,23,1,2,4,5,7,8,13,14,15,16,17,18,19,20,21,22,23,24,25,26,27,28,29,30,31,32,33,34,35,36,37,38,39,40,41,42,43,44,46,48,50,52,54,56,58,59,60,61,62,63,64,65,66,67,68,69,70,71,72,73,74,75,76,51,55,57,77,78,79,80,81,82,83,84,85,86,87,88,89,90,91,92,93,94,95,96,97,45,47,135,100,101,102,103,104,105,107,109,49,53,137,113,115
icc_dynregister1.apk,27,23,1,2,3,4,5,6,7,8,13,14,15,16,17,18,19,20,21,22,23,24,25,26,27,28,29,30,31,32,33,34,35,36,37,38,39,40,41,42,43,44,46,48,50,52,54,56,58,59,60,61,62,63,64,65,66,67,68,69,70,71,72,73,74,75,76,51,55,57,132,53,77,78,79,80,81,82,83,84,85,86,87,88,89,90,91,92,93,94,95,96,97,102,103,104,105,107,109,113,45,47,106,108,133,134,110,111,135,100,136,115
icc_implicit_nosrc_sink.apk,27,23,1,2,4,5,7,8,13,14,15,16,17,18,19,20,21,22,23,24,25,26,27,28,29,30,31,32,33,34,35,36,37,38,39,40,41,42,43,44,46,48,50,52,54,56,58,59,60,61,62,63,64,65,66,67,68,69,70,71,72,73,74,75,76,51,55,57,77,78,79,80,81,82,83,84,85,86,87,88,89,90,91,92,93,94,95,96,97,45,47,49,53,102,103,104,105,107,109,135,100,101,113,115
icc_implicit_category.apk,27,23,1,2,3,4,5,6,7,8,13,14,15,16,17,18,19,20,21,22,23,24,25,26,27,28,29,30,31,32,33,34,35,36,37,38,39,40,41,42,43,44,46,48,50,52,54,56,58,59,60,61,62,63,64,65,66,67,68,69,70,71,72,73,74,75,76,51,55,57,77,78,79,80,81,82,83,84,85,86,87,88,89,90,91,92,93,94,95,96,97,45,47,106,108,110,111,135,116,100,101,102,103,104,105,107,109,49,53,113,115
icc_explicit_nosrc_nosink.apk,27,23,1,2,4,5,7,8,13,14,15,16,17,18,19,20,21,22,23,24,25,26,27,28,29,30,31,32,33,34,35,36,37,38,39,40,41,42,43,44,46,48,50,52,54,56,58,59,60,61,62,63,64,65,66,67,68,69,70,71,72,73,74,75,76,51,55,57,77,78,79,80,81,82,83,84,85,86,87,88,89,90,91,92,93,94,95,96,97,45,49,53,137,102,103,104,105,107,109,47,98,99,100,101,113,115
icc_implicit_src_sink.apk,27,23,1,2,3,4,5,6,7,8,13,14,15,16,17,18,19,20,21,22,23,24,25,26,27,28,29,30,31,32,33,34,35,36,37,38,39,40,41,42,43,44,46,48,50,52,54,56,58,59,60,61,62,63,64,65,66,67,68,69,70,71,72,73,74,75,76,51,55,57,77,78,79,80,81,82,83,84,85,86,87,88,89,90,91,92,93,94,95,96,97,102,103,104,105,45,47,49,53,107,109,106,108,110,111,135,100,101,113,115
icc_implicit_data1.apk,27,23,1,2,3,4,5,6,7,8,10,13,14,15,16,17,18,19,20,45,47,106,108,110,111,112,117,179,100,101,21,22,23,24,25,26,27,28,29,30,31,32,33,34,35,36,37,38,39,40,41,42,43,44,46,48,50,52,54,56,58,59,60,61,62,63,64,65,66,67,68,69,70,71,72,73,74,75,76,51,55,57,77,78,79,80,81,82,83,84,85,86,87,88,89,90,91,92,93,94,95,96,97,102,103,104,105,107,109,49,53,113,115
icc_rpc_comprehensive.apk,27,23,1,2,3,4,5,6,7,8,9,13,14,15,16,17,18,19,20,125,180,181,21,22,23,24,25,26,27,28,29,30,31,32,33,34,35,36,37,38,39,40,41,42,43,44,46,48,50,52,54,56,58,59,60,61,62,63,64,65,66,67,68,69,70,71,72,73,74,75,76,51,55,57,182,77,78,79,80,81,82,83,84,85,86,87,88,89,90,91,92,93,94,95,96,97,45,183,49,100,171,172,115,47,112,98,169,128,129,102,103,104,105,53,106,108,170,107,109,184,164,165,166,167,155,168,113,121,151,152,154,156,153,185,110,111
